{
"page": 1,
"per_page": 6,
"total": 12,
"total_pages": 2,
"data": [
{
"id": 1,
"first_name": "George",
"avatar": "https://s3.amazonaws.com/uifaces/faces/twitter/calebogden/128.jpg"
},
{
"id": 2,
"first_name": "Janet",
"avatar": "https://s3.amazonaws.com/uifaces/faces/twitter/josephstein/128.jpg"
},
{
"id": 3,
"first_name": "Emma",
"avatar": "https://s3.amazonaws.com/uifaces/faces/twitter/olegpogodaev/128.jpg"
},
{
"id": 4,
"first_name": "Eve",
"avatar": "https://s3.amazonaws.com/uifaces/faces/twitter/marcoramires/128.jpg"
},
{
"id": 5,
"first_name": "Charles",
"avatar": "https://s3.amazonaws.com/uifaces/faces/twitter/stephenmoon/128.jpg"
},
{
"id": 6,
"first_name": "Tracey",
"avatar": "https://s3.amazonaws.com/uifaces/faces/twitter/bigmancho/128.jpg"
}
]
}
